…
    ## # A tibble: 1 x 9
    ##   state population total murders gun_murders gun_ownership total_rate
    ##   <lgl> <lgl>      <lgl> <lgl>   <lgl>       <lgl>         <lgl>     
    ## 1 FALSE TRUE       TRUE  TRUE    TRUE        FALSE         FALSE     
    ## # ... with 2 more variables: murder_rate <lgl>, gun_murder_rate <lgl>

``` r
murders <- mutate_at(murders_raw, 2:3, parse_number)
murders
```

    ## # A tibble: 51 x 9
    ##    state     population total murders gun_murders gun_ownership total_rate
    ##    <chr>          <dbl> <dbl> <chr>   <chr>               <dbl>      <dbl>
    ##  1 Alabama      4853875   348 3[a]    3[a]                 48.9        7.2
    ##  2 Alaska        737709    59 57      39                   61.7        8  
    ##  3 Arizona      6817565   309 278     171                  32.3        4.5
    ##  4 Arkansas     2977853   181 164     110                  57.9        6.1
    ##  5 Californ…   38993940  1861 1,861   1,275                20.1        4.8
    ##  6 Colorado     5448819   176 176     115                  34.3        3.2
    ##  7 Connecti…    3584730   117 107     73                   16.6        3.3
    ##  8 Delaware      944076    63 63      52                    5.2        6.7
    ##  9 District…     670377   162 162     121                  25.9       24.2
    ## 10 Florida     20244914  1041 — [b]   — [b]                32.5        5.1
    ## # ... with 41 more rows, and 2 more variables: murder_rate <chr>,
    ## #   gun_murder_rate <chr>
…
``` r
data("reported_heights")
problems <- reported_heights %>% as_tibble() %>%
  mutate(height_dbl = as.numeric(height), na = is.na(height_dbl)) %>%
  filter(na == TRUE | !between(height_dbl, 50, 84))
```

    ## Warning in evalq(as.numeric(height), <environment>): NAs introduzidos por
    ## coerção

``` r
problems
```

    ## # A tibble: 292 x 5
    ##    time_stamp          sex    height   height_dbl na   
    ##    <chr>               <chr>  <chr>         <dbl> <lgl>
    ##  1 2014-09-02 15:16:23 Male   6               6   FALSE
    ##  2 2014-09-02 15:16:28 Male   "5' 4\""       NA   TRUE 
    ##  3 2014-09-02 15:16:32 Female 5.3             5.3 FALSE
    ##  4 2014-09-02 15:16:37 Female 165cm          NA   TRUE 
    ##  5 2014-09-02 15:16:41 Male   511           511   FALSE
    ##  6 2014-09-02 15:16:46 Male   6               6   FALSE
    ##  7 2014-09-02 15:16:50 Female 2               2   FALSE
    ##  8 2014-09-02 15:16:52 Male   5'7            NA   TRUE 
    ##  9 2014-09-02 15:16:56 Male   >9000          NA   TRUE 
    ## 10 2014-09-02 15:16:56 Male   "5'7\""        NA   TRUE 
    ## # ... with 282 more rows
…
``` r
pattern1 <- "^\\d\\s*'\\s*\\d{1,2}\\.*\\d*'*\"*$"
problems %>% filter(str_detect(height, pattern1))
```

    ## # A tibble: 56 x 5
    ##    time_stamp          sex    height   height_dbl na   
    ##    <chr>               <chr>  <chr>         <dbl> <lgl>
    ##  1 2014-09-02 15:16:28 Male   "5' 4\""         NA TRUE 
    ##  2 2014-09-02 15:16:52 Male   5'7              NA TRUE 
    ##  3 2014-09-02 15:16:56 Male   "5'7\""          NA TRUE 
    ##  4 2014-09-02 15:17:09 Female "5'3\""          NA TRUE 
    ##  5 2014-09-02 15:19:48 Male   5'11             NA TRUE 
    ##  6 2014-09-04 00:46:45 Male   5'9''            NA TRUE 
    ##  7 2014-09-04 10:29:44 Male   5'10''           NA TRUE 
    ##  8 2014-09-18 21:40:23 Male   5' 10            NA TRUE 
    ##  9 2014-10-19 13:08:30 Male   "5'5\""          NA TRUE 
    ## 10 2014-10-24 10:59:48 Female "5'2\""          NA TRUE 
    ## # ... with 46 more rows

``` r
pattern2 <- "^[4-6]\\s*[\\.|,]\\s*([0-9]|10|11)$"
problems %>% filter(str_detect(height, pattern2))
```

    ## # A tibble: 62 x 5
    ##    time_stamp          sex    height height_dbl na   
    ##    <chr>               <chr>  <chr>       <dbl> <lgl>
    ##  1 2014-09-02 15:16:32 Female 5.3           5.3 FALSE
    ##  2 2014-09-03 21:43:00 Male   5.5           5.5 FALSE
    ##  3 2014-09-04 06:31:03 Male   6.5           6.5 FALSE
    ##  4 2014-09-06 17:01:32 Male   5.8           5.8 FALSE
    ##  5 2014-09-07 14:35:35 Female 5.6           5.6 FALSE
    ##  6 2014-09-09 20:00:38 Male   5,3          NA   TRUE 
    ##  7 2014-09-15 07:56:56 Male   5.9           5.9 FALSE
    ##  8 2014-09-15 14:38:58 Male   6,8          NA   TRUE 
    ##  9 2014-09-19 05:04:16 Male   5.5           5.5 FALSE
    ## 10 2014-09-30 21:44:18 Male   6.2           6.2 FALSE
    ## # ... with 52 more rows

``` r
problems %>% filter(between(height_dbl/2.54, 54, 81))
```

    ## # A tibble: 91 x 5
    ##    time_stamp          sex    height height_dbl na   
    ##    <chr>               <chr>  <chr>       <dbl> <lgl>
    ##  1 2014-09-04 09:24:41 Female 150           150 FALSE
    ##  2 2014-09-07 16:33:46 Male   175           175 FALSE
    ##  3 2014-09-07 18:18:31 Male   177           177 FALSE
    ##  4 2014-09-19 11:01:10 Male   178           178 FALSE
    ##  5 2014-09-26 05:34:34 Female 163           163 FALSE
    ##  6 2014-10-05 03:41:48 Male   175           175 FALSE
    ##  7 2014-10-13 03:09:39 Male   178           178 FALSE
    ##  8 2014-10-15 16:46:17 Female 165           165 FALSE
    ##  9 2014-10-21 18:26:06 Female 165           165 FALSE
    ## 10 2014-10-23 12:15:48 Male   180           180 FALSE
    ## # ... with 81 more rows
…
